<svg width="94" height="94" viewBox="0 0 94 94" fill="none" xmlns="http://www.w3.org/2000/svg">
<g filter="url(#filter0_d_621_1128)">
<circle cx="47" cy="47" r="35" fill="white"/>
</g>
<path d="M62 47C62 55.2843 55.2843 62 47 62C38.7157 62 32 55.2843 32 47C32 38.7157 38.7157 32 47 32C55.2843 32 62 38.7157 62 47ZM45.265 54.9424L56.394 43.8133C56.7719 43.4354 56.7719 42.8227 56.394 42.4448L55.0254 41.0762C54.6475 40.6982 54.0348 40.6982 53.6568 41.0762L44.5806 50.1523L40.3432 45.9149C39.9653 45.537 39.3525 45.537 38.9746 45.9149L37.606 47.2834C37.2281 47.6613 37.2281 48.2741 37.606 48.652L43.8963 54.9423C44.2743 55.3203 44.887 55.3203 45.265 54.9424Z" fill="#8FC323"/>
<defs>
<filter id="filter0_d_621_1128" x="0" y="0" width="94" height="94" filterUnits="userSpaceOnUse" color-interpolation-filters="sRGB">
<feFlood flood-opacity="0" result="BackgroundImageFix"/>
<feColorMatrix in="SourceAlpha" type="matrix" values="0 0 0 0 0 0 0 0 0 0 0 0 0 0 0 0 0 0 127 0" result="hardAlpha"/>
<feOffset/>
<feGaussianBlur stdDeviation="6"/>
<feComposite in2="hardAlpha" operator="out"/>
<feColorMatrix type="matrix" values="0 0 0 0 0.29592 0 0 0 0 0.29592 0 0 0 0 0.29592 0 0 0 0.1 0"/>
<feBlend mode="normal" in2="BackgroundImageFix" result="effect1_dropShadow_621_1128"/>
<feBlend mode="normal" in="SourceGraphic" in2="effect1_dropShadow_621_1128" result="shape"/>
</filter>
</defs>
</svg>
