<svg width="26" height="27" viewBox="0 0 26 27" fill="none" xmlns="http://www.w3.org/2000/svg">
<circle cx="13" cy="13.5" r="13" fill="#FFBA00"/>
<path d="M8 11.5L12.7575 16.5L18 11.5" stroke="#312B63" stroke-width="2" stroke-linecap="round"/>
</svg>
